%YAML 1.1
%TAG !u! tag:unity3d.com,2011:
--- !u!1045 &1
EditorBuildSettings:
  m_ObjectHideFlags: 0
  serializedVersion: 2
  m_Scenes:
  - enabled: 1
    path: Assets/3D/menuAR.unity
    guid: a3518807008583f41b4c5def5e9a13f5
  - enabled: 1
    path: Assets/SamplesResources/Scenes/scangambar.unity
    guid: fa05b4f596c584dc79960294a1b601cc
  - enabled: 1
    path: Assets/SamplesResources/Scenes/tampilanimasimarkeles.unity
    guid: 89ed636faaaf34959983482a021ac4e6
  m_configObjects: {}
